<svg xmlns="http://www.w3.org/2000/svg" width="279.402" height="226.956" viewBox="0 0 279.402 226.956">
  <g id="Group_246" data-name="Group 246" transform="translate(-369.029 -179.455)">
    <path id="Path_360" data-name="Path 360" d="M564.281,373.745c-.084.656-.146,1.317-.257,1.969-2.48,14.539-7.686,28.128-14.249,41.267a76.373,76.373,0,0,1-9.257,14.951c-9.68,11.664-21.965,15.523-36.627,12.331-12.23-2.662-21.667-9.581-29.245-19.293-7.551-9.678-12.366-20.742-16.158-32.294a150.191,150.191,0,0,1-6.6-27.419,16.168,16.168,0,0,1,.107-4.761c.455-2.647,1.95-3.739,4.629-3.379a15.117,15.117,0,0,1,4.4,1.321c17.759,8.437,36.414,9.753,55.364,6.057,11.4-2.222,22.523-5.822,33.768-8.814,10.92-2.9,21.83-5.867,33.077-7.266,5.744-.714,11.491-.913,17.154.685,8.88,2.5,13.815,8.62,14.359,17.806.57,9.608-4.1,16.54-11.317,22.18a39.278,39.278,0,0,1-21.651,8.074c-.441.035-.879.112-1.5.194,1.039,2.286,1.649,4.623.609,6.853a24.819,24.819,0,0,1-3.532,5.577c-1.807,2.119-3.965,3.938-5.96,5.9a12.8,12.8,0,0,0-1.136,1.28c-2.137,2.754-1.564,4.329,1.834,5.079-3.9.109-5.724-2.308-4.122-5.84a19.843,19.843,0,0,1,3.529-5.19c2.209-2.378,4.731-4.463,7.065-6.729,2.139-2.077,2.609-3.72,1.552-5.769a2.97,2.97,0,0,0-1.751-1.136c-1.132-.32-2.356-.323-3.481-.662a1.506,1.506,0,0,1-.784-1.266c.1-.405.888-1.01,1.211-.921,1.259.345,2.446.948,3.673,1.421a5.753,5.753,0,0,0,2.2.682,45.307,45.307,0,0,0,5.759-.781,35.169,35.169,0,0,0,22.9-14.957,21.061,21.061,0,0,0,.29-23.274c-3.541-5.19-8.9-6.882-14.786-7.351-8.145-.649-16.081.859-23.829,3.052-13.942,3.946-27.787,8.236-41.667,12.4-8.823,2.646-17.769,4.787-26.979,5.323-12.791.746-25.446-.189-37.67-4.414-2.348-.811-4.567-2-7.138-3.139.4,1.954.727,3.714,1.12,5.46a188.6,188.6,0,0,0,9.348,30.757c4.142,10.037,9.377,19.441,17.354,27.013,8.512,8.079,18.59,12.256,30.444,11.618a25.171,25.171,0,0,0,14.934-6.163c6.283-5.208,10.388-12.053,14.3-19.056,5.413-9.689,9.331-20.046,13.647-30.227,1.046-2.467,2.237-4.874,3.4-7.292.334-.7.792-1.336,1.194-2Zm14.31,23.327.288-.983c-1.149-.427-2.285-.9-3.459-1.24-.23-.067-.791.323-.864.593a1.041,1.041,0,0,0,.525.891C576.232,396.648,577.418,396.837,578.591,397.072Z" transform="translate(-55.032 -112.039)" fill="#fff"/>
    <path id="Path_361" data-name="Path 361" d="M640.991,560.825c8.716,6.565,8.871,18.25.366,25.311-5.7,4.733-12.5,6.119-19.621,6.478-8.732.441-17.315-.832-25.844-2.508-12.661-2.487-25.329-4.928-38.267-5.385-4.33-.153-8.671.008-13.007.008a2.007,2.007,0,0,0-2.187,1.4c-.976,2.431-3.009,3.961-5.129,5.352a104.086,104.086,0,0,1-32.846,13.751c-17.595,4.287-35.478,5.474-53.527,4.92a284.943,284.943,0,0,1-52.745-6.5c-2.38-.525-4.734-1.166-7.2-1.778,4.026,4.867,45.571,13.937,64.011,14.326,22.331.472,43.982-2.715,64.863-10.885-2.528,1.042-5.029,2.155-7.588,3.113a159.043,159.043,0,0,1-27.06,7.272,151.189,151.189,0,0,1-31.648,2.714,180.758,180.758,0,0,1-33.605-3.894,134.99,134.99,0,0,1-31.93-11.078,61.778,61.778,0,0,1-16.243-11.271c-3.425-3.419-3.588-7.678-.894-11.707a16.469,16.469,0,0,1,6.258-5.716c9.466-4.77,19.433-7.572,30.111-7.461.947.01,1.892.176,2.838.27q.017.233.034.465c-.728.056-1.457.1-2.184.169a69.71,69.71,0,0,0-30.085,9.522,16.559,16.559,0,0,0-4.574,4.737c-1.8,2.544-1.632,5.19.667,7.292a29.408,29.408,0,0,0,6.874,4.679c7.972,3.882,16.607,5.664,25.235,7.357a282.567,282.567,0,0,0,40.351,5.282c9.62.479,19.286.814,28.9.446,17.606-.674,34.87-3.477,51.084-10.844a125.959,125.959,0,0,0,11.131-6.022,10.143,10.143,0,0,0,4.868-5.672c-13.992.837-26.77,4.914-38.943,11.179l-.283-.473c1.451-1.089,2.839-2.278,4.364-3.249a74.621,74.621,0,0,1,28.881-10.557c14.321-2.261,28.546-1.269,42.685,1.374,8.633,1.613,17.174,3.714,25.79,5.428,7.41,1.474,14.9,2.329,22.46,1.324,5.226-.7,10.147-2.2,14.159-5.866,6.749-6.171,7.026-15.092.658-21.686-.462-.478-.994-.889-1.493-1.33Z" transform="translate(0 -253.692)" fill="#fff"/>
    <path id="Path_362" data-name="Path 362" d="M547.838,245.536a10.966,10.966,0,0,1,3.9-6.32,35.685,35.685,0,0,1,12.991-7.087c7.706-2.486,15.525-4.615,23.268-6.99a58.844,58.844,0,0,0,6.346-2.526c1.3-.573,1.587-1.608.34-2.457a70.616,70.616,0,0,0-7.918-4.954c-3.922-1.966-8.08-3.457-12.027-5.378a30.743,30.743,0,0,1-6.338-4.008c-5.558-4.679-5.8-11.459-.774-16.655a17.763,17.763,0,0,1,1.619-1.525c3.494-2.806,7-5.592,10.719-8.182q-2.7,2.487-5.4,4.973c-1.934,1.772-4.005,3.414-5.785,5.329-4.589,4.935-3.839,11.228,2.007,14.622a77.245,77.245,0,0,0,11.243,4.935c4.837,1.853,10.02,2.931,14.221,6.163a12.512,12.512,0,0,1,3.517,4.054c1.372,2.711.327,5.739-2.891,7.257a92.505,92.505,0,0,1-12.93,4.833c-7.43,2.224-14.99,4.011-22.43,6.2a28.523,28.523,0,0,0-12.7,7.147A6.246,6.246,0,0,1,547.838,245.536Z" transform="translate(-118.946)" fill="#fff"/>
    <path id="Path_363" data-name="Path 363" d="M529.151,393.333c2.375.489,4.745,1,7.126,1.465,15.29,2.969,30.2,1.05,44.925-3.447,9.85-3.009,19.227-7.189,28.618-11.353,7.893-3.5,15.923-6.626,24.591-7.634,5.066-.589,10.033-.264,14.715,2.017,8.383,4.086,11.044,13.563,5.578,20.943a8.221,8.221,0,0,1,.344-1.148c5.295-10.188-1.523-18.083-10.138-19.862-5.506-1.137-10.9-.319-16.231,1.168-8.409,2.345-16.143,6.294-23.933,10.1-12.266,5.994-24.948,10.727-38.526,12.719-11.058,1.622-21.965,1.09-32.6-2.606-1.574-.547-3.076-1.3-4.612-1.956Z" transform="translate(-106.419 -128.154)" fill="#fff"/>
    <path id="Path_364" data-name="Path 364" d="M653.307,788.748H376.367v-.414H653.312Q653.31,788.541,653.307,788.748Z" transform="translate(-4.882 -405.035)" fill="#fff"/>
    <path id="Path_365" data-name="Path 365" d="M651.836,855.985H374.8C375.732,855.174,649.977,854.949,651.836,855.985Z" transform="translate(-3.842 -449.574)" fill="#fff"/>
    <path id="Path_367" data-name="Path 367" d="M1022.51,536.8c-2.3.813-4.651,1.5-6.882,2.469-3.491,1.517-6.967,3.1-10.305,4.916a9.591,9.591,0,0,0-3.194,3.246c-1.566,2.438-.416,4.685,2.5,4.713a15.588,15.588,0,0,0,5.805-1.067,31.4,31.4,0,0,0,11.395-8.3c1.87-2.047,3.452-4.356,5.465-6.931l-1.432.131c1.287-.822,2.384-1.862,2.35-3.474-.018-.864-.3-2.145-.895-2.474a4.01,4.01,0,0,0-3.122-.245,50.5,50.5,0,0,0-4.494,2.782c-.487.273-1.23.089-1.856.114a6.516,6.516,0,0,1,.814-1.838A3.037,3.037,0,0,1,1020.3,530c5.092-.929,9.087-4.117,13.477-6.486a33.208,33.208,0,0,0,4.023-2.554c-2.187.586-3.53-.573-4.853-1.942-1.78-1.842-2.827-1.979-4.945-.516a46.856,46.856,0,0,0-4.083,3.358c-3.22,2.811-6.413,5.653-9.628,8.468a2.63,2.63,0,0,1-.748.317l.016.018c1.616-1.408,3.266-2.78,4.841-4.234,2.888-2.666,5.723-5.389,8.6-8.066a11.963,11.963,0,0,1,1.652-1.218c3.484-2.265,4.924-2.185,8.116.414.4.324.794.651,1.2.965,1.323,1.017,2.516,1.083,3.752-.255.694-.751,1.372-1.893,3.35-1.148-1.117.816-1.885,1.486-2.749,1.991-5.368,3.129-10.759,6.22-16.137,9.332-.079.045-.1.192-.2.4,2.63.445,3.752,2.29,4.249,4.9,4.664-2.436,8.435-5.756,12.311-9.076a8.605,8.605,0,0,1-1.092,1.238c-3.416,2.654-6.864,5.266-10.278,7.922-.457.356-1.031.836-1.128,1.339-1.05,5.494-4.425,9.361-8.894,12.266a33.355,33.355,0,0,1-14.008,5.208,10.39,10.39,0,0,1-2.885-.075c-3-.468-4.05-2.473-2.741-5.211a11.091,11.091,0,0,1,6.128-5.488C1012.518,539.963,1017.548,538.469,1022.51,536.8Z" transform="translate(-420.375 -223.556)" fill="#fff"/>
    <path id="Path_368" data-name="Path 368" d="M916.354,456.054a7.165,7.165,0,0,1,1.4-1.391c3.776-2.085,6.472-5.382,9.427-8.37,6.83-6.906,13.722-13.736,21.8-19.219,1.928-1.309,3.877-2.665,6.385-2.608,2,.045,2.723.8,2.442,2.779a10.181,10.181,0,0,1-3.729,6.192,104.58,104.58,0,0,1-11.512,9.1c-4.826,3.107-10.079,5.549-15.108,8.349A13.43,13.43,0,0,0,924.2,453.3q-4.985,5.3-9.775,10.783c-1.351,1.539-2.539,3.225-3.748,4.883a3.345,3.345,0,0,0-.531,3.523l.032-.034c-1.433-.687-1.345-2.006-1.217-3.231a13.088,13.088,0,0,1,3.72-7.358c2.2-2.46,4.431-4.895,6.477-7.588l-2.839,1.736Zm11.206-5.857c1.222-.565,2.462-1.1,3.664-1.7,8.226-4.139,16.205-8.649,22.408-15.664a22.226,22.226,0,0,0,3.112-4.465c.421-.817.558-2.361.072-2.9-.5-.561-2.011-.614-2.907-.336a13.267,13.267,0,0,0-3.9,2.052C941.351,433.63,934.518,441.908,927.561,450.2Z" transform="translate(-359.13 -162.983)" fill="#fff"/>
    <path id="Path_369" data-name="Path 369" d="M963.686,532.312a38.449,38.449,0,0,1-4.423,2.483c-2.179.887-3.681-.047-4.123-2.358a8.294,8.294,0,0,1-.065-2.209,15.6,15.6,0,0,1,.428-2.011c-4.576,2.572-5.071,2.58-6.769.038l-4.248,2.968-.165-.213c1.292-1.041,2.657-2.006,3.851-3.15a15.346,15.346,0,0,0,2.006-2.691c1.349-2.04,2.608-4.14,4.009-6.141a7.118,7.118,0,0,1,1.755-1.321l.558.412a8.654,8.654,0,0,1-.9,2.349c-1.6,2.072-3.283,4.087-5.045,6.023-.721.792-1.362,1.489-.643,2.5a1.843,1.843,0,0,0,2.742.373,36.117,36.117,0,0,0,4.512-3.617A29.4,29.4,0,0,1,971.86,517.8a6.29,6.29,0,0,1,1.018-.118c2.463-.115,3.052.392,3.278,3.155,1.763-1.992,3.354-4.1,6.406-2.893-.269.332-.512.679-.8.982-3.392,3.547-6.8,7.079-10.182,10.638a12.857,12.857,0,0,0-2.036,2.513,2.211,2.211,0,0,0-.036,1.978,2.168,2.168,0,0,0,1.934.394,16.563,16.563,0,0,0,2.839-1.529c.53-.3,1.064-.589,1.6-.883l-.016-.018a34.331,34.331,0,0,1-4.643,2.909c-1.716.744-3.252-.7-2.945-2.7a26.579,26.579,0,0,1,1.279-3.991L967,530.019c.44-.5.846-1.041,1.326-1.5,1.929-1.857,3.967-3.611,5.791-5.565,1.038-1.111,2.116-2.689,1.022-4.141-1.12-1.488-2.932-.758-4.258-.078a39.375,39.375,0,0,0-14.1,12.442,3.265,3.265,0,0,0-.3,2.776c.567,1.2,1.878.816,2.892.39C960.84,533.726,962.253,532.994,963.686,532.312Z" transform="translate(-382.692 -224.932)" fill="#fff"/>
    <path id="Path_371" data-name="Path 371" d="M389.543,799.286c2.31.1,4.471.059,6.587.342a3.46,3.46,0,0,1,2.964,3.142,4.179,4.179,0,0,1-1.565,4.266,14.614,14.614,0,0,1-1.446.889c.842,1.218,1.69,2.4,2.486,3.608.769,1.17,1.486,2.375,2.256,3.614a2.033,2.033,0,0,1-2.84-1.07,27.1,27.1,0,0,0-2.324-3.787,4.787,4.787,0,0,0-2.1-1.6c-1.762-.6-2.216-.177-2.223,1.686-.005,1.37.052,2.744-.054,4.105-.024.3-.585.7-.959.785-.192.042-.746-.511-.749-.8C389.53,809.513,389.543,804.558,389.543,799.286Zm3.744,1.307c-.643.371-1.762.662-1.841,1.129a23.743,23.743,0,0,0-.077,4.43.977.977,0,0,0,.36.7c1.744,1.133,5.17-.475,5.476-2.547C397.525,802.139,396.194,800.936,393.287,800.593Z" transform="translate(-13.645 -412.32)" fill="#fff"/>
    <path id="Path_372" data-name="Path 372" d="M542.89,812.687l-2.344,1.216V807.47c0-3.076-.017-6.152.013-9.228.006-.653-.383-1.608.859-1.646s.923.9.932,1.573c.024,1.74.008,3.48.008,5.558.614-.516.928-.808,1.27-1.064a4.4,4.4,0,0,1,6.912,1.94,10.87,10.87,0,0,1,.248,5.183C549.966,813.8,546,815.017,542.89,812.687Zm6.565-5.115c-.158-2.43-1.231-4.024-3.034-4.305a3.286,3.286,0,0,0-3.77,2.475,11.731,11.731,0,0,0-.09,4.212,2.927,2.927,0,0,0,2.75,2.432,2.97,2.97,0,0,0,3.229-1.743A20.273,20.273,0,0,0,549.454,807.571Z" transform="translate(-114.068 -410.53)" fill="#fff"/>
    <path id="Path_373" data-name="Path 373" d="M1106.988,418.224,1121,405.18l.3.258a4.4,4.4,0,0,1-.376.554c-5.589,6.053-11.142,12.139-16.786,18.14-4.252,4.521-8.589,8.962-12.966,13.362a10.624,10.624,0,0,1-2.711,1.459l-.265-.415q5.791-6.406,11.58-12.81a1.26,1.26,0,0,0,.2.2.17.17,0,0,0,.153-.039q3.592-3.706,7.178-7.418Z" transform="translate(-478.397 -150.155)" fill="#fff"/>
    <path id="Path_374" data-name="Path 374" d="M1166.984,822.124c-.272.463-.434,1.089-.836,1.361a6.576,6.576,0,0,1-6.639-.417c-1.732-1.48-2.367-4.9-1.387-7.479a5.039,5.039,0,0,1,5.148-3.447c3.062.137,4.851,2.776,4.179,6.446h-7.709C1159.539,822.367,1162.141,823.535,1166.984,822.124Zm-1.263-5.058c-.113-2.308-1.043-3.437-2.692-3.492-1.712-.056-3.012,1.281-3.307,3.492Z" transform="translate(-524.609 -420.867)" fill="#fff"/>
    <path id="Path_375" data-name="Path 375" d="M861.613,522.557c2.711-2.389,5.008-5.637,9.376-4.65-2.753,2.846-5.452,5.664-8.185,8.448-1.635,1.667-3.348,3.258-4.976,4.931-.662.68-1.583,1.595-.645,2.467.544.506,1.693.465,2.571.47a6.439,6.439,0,0,0,1.839-.611c-.181.237-.228.358-.314.4-1.446.73-2.936,1.459-4.465.3-1.059-.8-1.268-2.842-.084-4.581a65.808,65.808,0,0,1,5.016-6.006c.923-1.058,1.932-2.042,3.2-3.367l-3.361,2.159Z" transform="translate(-323.892 -225.022)" fill="#fff"/>
    <path id="Path_376" data-name="Path 376" d="M1008.021,813.852c.4-.536.68-1.312,1.213-1.57,3.9-1.885,6.877,0,6.9,4.284.011,2.215,0,4.43,0,7.184L1014,822.716a16.762,16.762,0,0,1-3.65,1,2.973,2.973,0,0,1-3.22-2.68,3.41,3.41,0,0,1,2.259-3.942c1.017-.332,2.135-.345,3.172-.63a9.382,9.382,0,0,0,1.762-.9c-.568-.767-.99-1.8-1.75-2.218-.613-.338-1.647,0-2.469.165a7.644,7.644,0,0,0-1.543.673Zm6.065,3.829c-1.139.191-2.312.32-3.449.6a1.928,1.928,0,0,0-1.606,2.544c.348,1.338,1.431,1.685,2.677,1.485C1013.634,822,1014.665,820.073,1014.086,817.681Z" transform="translate(-424.436 -420.479)" fill="#fff"/>
    <path id="Path_377" data-name="Path 377" d="M929.237,800.983c-3.314-1.112-6.322-1.218-8.594,1.806a7.867,7.867,0,0,0-.259,8.261c2.321,3.421,5.552,2.933,8.854,1.844.509,1.115.113,1.69-.931,1.931-3.249.752-6.458.882-8.862-1.88-2.5-2.875-2.567-6.3-1.152-9.646,1.363-3.225,4.076-4.62,7.535-4.575.738.01,1.477.091,2.213.166C929.262,799.016,929.78,799.607,929.237,800.983Z" transform="translate(-364.76 -411.946)" fill="#fff"/>
    <path id="Path_378" data-name="Path 378" d="M627.058,814.563c-.392-1.134,0-1.748,1-2.038,3.62-1.051,7.035-.539,6.764,4.576-.114,2.15-.019,4.31-.019,7.03L632.646,823a13.807,13.807,0,0,1-3.141,1.077,3.087,3.087,0,0,1-3.68-2.73,3.379,3.379,0,0,1,2.6-4.018c1.47-.378,2.991-.557,4.464-.82C632.859,813.34,631.125,812.78,627.058,814.563Zm5.758,3.444c-1.214.2-2.339.329-3.432.593a1.994,1.994,0,0,0-1.685,2.655,2.27,2.27,0,0,0,2.926,1.347C632.386,822.12,633.23,820.49,632.816,818.007Z" transform="translate(-170.792 -420.828)" fill="#fff"/>
    <path id="Path_379" data-name="Path 379" d="M707.718,822.982c2.234,0,4.039-.034,5.84.033.3.011.588.461.88.709-.28.208-.557.593-.84.6-2.771.046-5.542.027-8.848.027l7.151-10.057c-1.92,0-3.426.055-4.923-.034-.434-.026-.844-.461-1.266-.709.38-.234.755-.66,1.141-.67,2.486-.061,4.975-.031,8.021-.031Z" transform="translate(-223.326 -421.337)" fill="#fff"/>
    <path id="Path_380" data-name="Path 380" d="M1089.347,803.373l-1.514-1.153,2-1.173a18.537,18.537,0,0,1,.01-1.879,3.35,3.35,0,0,1,3.789-3.266c.427.057.79.587,1.526,1.172-3.457.45-3.854,1.031-3.429,4.371a8.221,8.221,0,0,1,1.587.143,3.363,3.363,0,0,1,.942.676c-.3.246-.634.737-.89.7-1.854-.28-1.845.844-1.82,2.154.05,2.553.015,5.107.015,7.709-1.185.458-1.778.295-1.759-1.062.04-2.836.012-5.672.012-8.508Z" transform="translate(-478.158 -410.047)" fill="#fff"/>
    <path id="Path_381" data-name="Path 381" d="M477.1,818.726c0-1.595-.06-3.193.044-4.78.024-.368.6-.7.927-1.048.256.352.729.7.735,1.056q.087,4.7,0,9.394c-.006.348-.484.688-.744,1.031-.32-.347-.891-.677-.916-1.044C477.04,821.8,477.1,820.263,477.1,818.726Z" transform="translate(-71.878 -421.375)" fill="#fff"/>
    <path id="Path_382" data-name="Path 382" d="M1087.276,444.1c-4.232,2.114-7.863,4.532-9.72,8.79-.435-.413-.836-2.549-.164-3.3A16.251,16.251,0,0,1,1087.276,444.1Z" transform="translate(-470.974 -176.042)" fill="#fff"/>
    <path id="Path_383" data-name="Path 383" d="M1106.176,444.258c-2.246,3.05-5.664,5.176-7.417,8.658-.784-1.1.019-2.6.641-3.531a26.03,26.03,0,0,1,4.282-4.47,9.6,9.6,0,0,1,2.223-1.164Z" transform="translate(-485.211 -175.813)" fill="#fff"/>
    <path id="Path_384" data-name="Path 384" d="M1050.576,452.99c-1.534-2.7,2.493-7.2,7.959-8.418-1.391,1.229-2.969,2.439-4.317,3.867C1052.853,449.885,1051.716,451.545,1050.576,452.99Z" transform="translate(-453.155 -176.359)" fill="#fff"/>
    <path id="Path_385" data-name="Path 385" d="M1148.35,453.949a2.889,2.889,0,0,1-.051-3.761,15.219,15.219,0,0,1,7.967-4.976,1.416,1.416,0,0,1,.511.025,24.7,24.7,0,0,0-8.089,6.907C1148.357,452.548,1148.457,453.307,1148.35,453.949Z" transform="translate(-517.932 -176.773)" fill="#fff"/>
    <path id="Path_386" data-name="Path 386" d="M913.853,487.084a6.152,6.152,0,0,1,1.131,1.879,2.053,2.053,0,0,1-2.25,2,2.334,2.334,0,0,1-1.422-1.475C911.083,488.474,912.387,487.329,913.853,487.084Z" transform="translate(-360.716 -204.639)" fill="#fff"/>
    <path id="Path_388" data-name="Path 388" d="M902.093,518.721c-1.759,1.575-3.5,3.175-5.282,4.717-2.584,2.231-5.2,4.424-7.812,6.623a2.592,2.592,0,0,1-1.491.689c3.313-2.808,6.606-5.639,9.947-8.414,1.508-1.252,3.11-2.391,4.67-3.581Z" transform="translate(-344.899 -225.684)" fill="#fff"/>
    <path id="Path_389" data-name="Path 389" d="M912.635,563.094c2.145.91,4.1.25,6-.748,1.023-.537,2.021-1.121,3.031-1.684l.234.507a65.053,65.053,0,0,1-6.457,2.7c-.769.238-1.843-.508-2.777-.8Z" transform="translate(-361.614 -253.583)" fill="#fff"/>
    <path id="Path_390" data-name="Path 390" d="M834.016,551.241l-7.854,4.775-.222-.364,7.789-4.754Z" transform="translate(-303.944 -247.089)" fill="#fff"/>
    <path id="Path_391" data-name="Path 391" d="M479.406,798.4c-.734.526-1.177,1.082-1.628,1.089-.357.006-1.072-.74-1.01-1.014a1.816,1.816,0,0,1,1.1-1.163C478.17,797.229,478.665,797.849,479.406,798.4Z" transform="translate(-71.667 -411.002)" fill="#fff"/>
    <path id="Path_392" data-name="Path 392" d="M1132.859,444.12l-3.3,3.274a10.224,10.224,0,0,1,2.663-4.792Z" transform="translate(-505.914 -175.049)" fill="#fff"/>
    <path id="Path_393" data-name="Path 393" d="M861.882,532.057l-5.117,4.524-.385-.484,5.533-4.006Z" transform="translate(-324.193 -234.556)" fill="#fff"/>
  </g>
</svg>
